Add an indifference curve to a data frame — add_indifference_curve • ReboundTools
…
This function finds a reasonable range over which to sweep the qs_qs0 variable
when generating the indifference curve, depending on the value of qs2_qs0.
When qs2_qs0 is NULL (the default), the curve is generated over the range
grqph_params$qs_qs0_lower * qs1_qs0 to grqph_params$qs_qs0_upper * qs1_qs0.
When qs2_qs0 is non-NULL, the curve is generated over the range
grqph_params$qs_qs0_lower * min(qs1_qs0, qs2_qs0) to
grqph_params$qs_qs0_upper * max(qs1_qs0, qs2_qs0).

    Examples

meta <- tibble::tibble(Case = "Test case")
add_indifference_curve(meta = meta, line_name= "Test indifference curve",
                       qs1_qs0 = 2, Co1_Co0 = 3, f_Cs_orig = 0.0001, sigma = 0.2)
#> # A tibble: 183 × 12
#>    Case      graph_type  line_name     colour linewidth linetype qs1_qs0 Co1_Co0
#>    <chr>     <chr>       <chr>         <chr>      <dbl> <chr>      <dbl>   <dbl>
#>  1 Test case Consumption Test indiffe… black        0.5 solid          2       3
#>  2 Test case Consumption Test indiffe… black        0.5 solid          2       3
#>  3 Test case Consumption Test indiffe… black        0.5 solid          2       3
#>  4 Test case Consumption Test indiffe… black        0.5 solid          2       3
#>  5 Test case Consumption Test indiffe… black        0.5 solid          2       3
#>  6 Test case Consumption Test indiffe… black        0.5 solid          2       3
#>  7 Test case Consumption Test indiffe… black        0.5 solid          2       3
#>  8 Test case Consumption Test indiffe… black        0.5 solid          2       3
#>  9 Test case Consumption Test indiffe… black        0.5 solid          2       3
#> 10 Test case Consumption Test indiffe… black        0.5 solid          2       3
#> # ℹ 173 more rows
#> # ℹ 4 more variables: f_Cs_orig <dbl>, sigma <dbl>, x <dbl>, y <dbl>
…
