A data frame of expenditure path segments — expenditure_paths • ReboundTools
…
graph_df_colnames
See ReboundTools::graph_df_colnames.

    Value

    A data frame with cost rebound path segments.

    Examples

load_eeu_data() %>% 
  rebound_analysis() %>% 
  expenditure_paths()
#> # A tibble: 21 × 14
#>    Reference Case       Original   Upgrade graph_type line_name colour linewidth
#>    <chr>     <chr>      <chr>      <chr>   <chr>      <chr>     <chr>      <dbl>
#>  1 None yet  Car        Ford Fusi… Ford F… Expenditu… dempl     #1507…       1  
#>  2 None yet  Lamp       Incandesc… LED     Expenditu… dempl     #1507…       1  
#>  3 None yet  Car, r = 0 Ford Fusi… Ford F… Expenditu… dempl     #1507…       1  
#>  4 None yet  Car        Ford Fusi… Ford F… Expenditu… cap       #1507…       1.5
#>  5 None yet  Lamp       Incandesc… LED     Expenditu… cap       #1507…       1.5
#>  6 None yet  Car, r = 0 Ford Fusi… Ford F… Expenditu… cap       #1507…       1.5
#>  7 None yet  Car        Ford Fusi… Ford F… Expenditu… OMd       #1507…       1  
#>  8 None yet  Lamp       Incandesc… LED     Expenditu… OMd       #1507…       1  
#>  9 None yet  Car, r = 0 Ford Fusi… Ford F… Expenditu… OMd       #1507…       1  
#> 10 None yet  Car        Ford Fusi… Ford F… Expenditu… isub      #9914…       1  
#> # ℹ 11 more rows
#> # ℹ 6 more variables: linetype <chr>, x <dbl>, y <dbl>, xend <dbl>, yend <dbl>,
#> #   end_arrow <lgl>
…
