Extract points from a data frame of paths — extract_points • ReboundTools
…
graph_df_colnames
See ReboundTools::graph_df_colnames.

    Value

    A data frame containing points extracted from paths.

    Examples

load_eeu_data() %>% 
  rebound_analysis() %>% 
  energy_paths() %>% 
  extract_points()
#> # A tibble: 27 × 15
#>    Reference Case     Original Upgrade graph_type colour linewidth      x      y
#>    <chr>     <chr>    <chr>    <chr>   <chr>      <chr>      <dbl>  <dbl>  <dbl>
#>  1 None yet  Car      Ford Fu… Ford F… Energy     #F7E2…       1   4.58e4 87262.
#>  2 None yet  Lamp     Incande… LED     Energy     #F7E2…       1   6.22e1 92905.
#>  3 None yet  Car, r … Ford Fu… Ford F… Energy     #F7E2…       1   4.58e4 88584.
#>  4 None yet  Car      Ford Fu… Ford F… Energy     #1507…       1   7.31e4 82759.
#>  5 None yet  Lamp     Incande… LED     Energy     #1507…       1   2.37e2 92840.
#>  6 None yet  Car, r … Ford Fu… Ford F… Energy     #1507…       1   7.31e4 84148.
#>  7 None yet  Car      Ford Fu… Ford F… Energy     #1507…       1.5 4.35e4 82759.
#>  8 None yet  Lamp     Incande… LED     Energy     #1507…       1.5 2.55e1 92840.
#>  9 None yet  Car, r … Ford Fu… Ford F… Energy     #1507…       1.5 4.35e4 84148.
#> 10 None yet  Car      Ford Fu… Ford F… Energy     #1507…       1   4.35e4 83188.
#> # ℹ 17 more rows
#> # ℹ 6 more variables: point_name <chr>, start_point <lgl>, shape <dbl>,
#> #   size <dbl>, stroke <dbl>, fill <chr>
load_eeu_data() %>% 
  rebound_analysis() %>% 
  expenditure_paths() %>% 
  extract_points()
#> # A tibble: 24 × 15
#>    Reference Case    Original Upgrade graph_type colour linewidth       x      y
#>    <chr>     <chr>   <chr>    <chr>   <chr>      <chr>      <dbl>   <dbl>  <dbl>
#>  1 None yet  Car     Ford Fu… Ford F… Expenditu… #E76F…       1   8.00e+2 26601.
#>  2 None yet  Lamp    Incande… LED     Expenditu… #E76F…       1   2.34e+0 27399.
#>  3 None yet  Car, r… Ford Fu… Ford F… Expenditu… #E76F…       1   8.00e+2 26602.
#>  4 None yet  Car     Ford Fu… Ford F… Expenditu… #1507…       1   1.28e+3 26126.
#>  5 None yet  Lamp    Incande… LED     Expenditu… #1507…       1   8.90e+0 27392.
#>  6 None yet  Car, r… Ford Fu… Ford F… Expenditu… #1507…       1   1.28e+3 26126.
#>  7 None yet  Car     Ford Fu… Ford F… Expenditu… #1507…       1.5 7.59e+2 26126.
#>  8 None yet  Lamp    Incande… LED     Expenditu… #1507…       1.5 9.61e-1 27392.
#>  9 None yet  Car, r… Ford Fu… Ford F… Expenditu… #1507…       1.5 7.59e+2 26126.
#> 10 None yet  Car     Ford Fu… Ford F… Expenditu… #1507…       1   7.59e+2 26067.
#> # ℹ 14 more rows
#> # ℹ 6 more variables: point_name <chr>, start_point <lgl>, shape <dbl>,
#> #   size <dbl>, stroke <dbl>, fill <chr>
…
