Indifference curve lines — indifference_lines • ReboundTools
…
    Value

    A data frame of indifference curves for a consumption path graph.

    Details

    The consumption path graph is always indexed, so there is no indexed argument.

    Examples

load_eeu_data() %>% 
  rebound_analysis() %>% 
  indifference_lines()
#> # A tibble: 835 × 15
#>    Reference Case  Original    Upgrade     graph_type line_name colour linewidth
#>    <chr>     <chr> <chr>       <chr>       <chr>      <chr>     <chr>      <dbl>
#>  1 None yet  Car   Ford Fusion Ford Fusio… Consumpti… orig      black        0.5
#>  2 None yet  Car   Ford Fusion Ford Fusio… Consumpti… orig      black        0.5
#>  3 None yet  Car   Ford Fusion Ford Fusio… Consumpti… orig      black        0.5
#>  4 None yet  Car   Ford Fusion Ford Fusio… Consumpti… orig      black        0.5
#>  5 None yet  Car   Ford Fusion Ford Fusio… Consumpti… orig      black        0.5
#>  6 None yet  Car   Ford Fusion Ford Fusio… Consumpti… orig      black        0.5
#>  7 None yet  Car   Ford Fusion Ford Fusio… Consumpti… orig      black        0.5
#>  8 None yet  Car   Ford Fusion Ford Fusio… Consumpti… orig      black        0.5
#>  9 None yet  Car   Ford Fusion Ford Fusio… Consumpti… orig      black        0.5
#> 10 None yet  Car   Ford Fusion Ford Fusio… Consumpti… orig      black        0.5
#> # ℹ 825 more rows
#> # ℹ 7 more variables: linetype <chr>, qs1_qs0 <dbl>, Cg1_Cg0 <dbl>,
#> #   f_Cs_orig <dbl>, sigma <dbl>, x <dbl>, y <dbl>
…
